{
    "0eb6e6ae-935c-0acf-22bd-51f4f27882a9": {
        "name": "NG-list",
        "guid": "0eb6e6ae-935c-0acf-22bd-51f4f27882a9",
        "template": "<mat-list %style% %bCustomProps% %class%></mat-list>",
        "designerTemplate": "<div class=\"ad-list-border drop ad-list\"></div>",
        "paletteTemplate": "List",
        "templateUrl": "https://material.angular.io/components/list/overview",
        "htmlAttributes": [
            {
                "0": false,
                "_key": "style",
                "_value": "",
                "_type": "kv",
                "_attrDef": "p"
            },
            {
                "1": false,
                "_key": "class",
                "_value": "draggableEle",
                "_type": "kv",
                "_attrDef": "p"
            },
            {
                "2": false,
                "3": false,
                "4": false,
                "_key": "dndEffectAllowed",
                "_value": "copyMove",
                "_type": "kv",
                "_attrDef": "c"
            },
            {
                "3": false,
                "_key": "dndDropzone",
                "_value": "",
                "_type": "kv",
                "_attrDef": "c"
            },
            {
                "_key": "(dndDrop)",
                "_value": "onDrop($event, draggableListLeft)",
                "_type": "kv",
                "_attrDef": "c"
            }
        ],
        "type": 1
    },
    "d239bef1-6d4d-8472-2266-9cf46e259f7d": {
        "name": "NG-listItem",
        "guid": "d239bef1-6d4d-8472-2266-9cf46e259f7d",
        "template": "<mat-list-item %*ngFor%  %style% %bCustomProps% %class%>%label%</mat-list-item>",
        "designerTemplate": "<div class=\"ad-list-border  drop ad-list ad-list-item\"></div>",
        "paletteTemplate": "List Item",
        "templateUrl": "https://material.angular.io/components/list/overview",
        "htmlAttributes": [
            {
                "0": false,
                "_key": "style",
                "_value": "",
                "_type": "kv",
                "_attrDef": "p"
            },
            {
                "1": false,
                "_key": "class",
                "_value": "",
                "_type": "kv",
                "_attrDef": "p"
            },
            {
                "2": false,
                "_key": "*ngFor",
                "_value": "let item of draggableListLeft",
                "_type": "kv",
                "_attrDef": "p"
            },
            {
                "3": false,
                "_key": "label",
                "_value": "{{item.content}}",
                "_type": "a",
                "_attrDef": "p"
            },
            {
                "4": false,
                "_key": "[dndDraggable]",
                "_value": "item",
                "_type": "kv",
                "_attrDef": "c"
            },
            {
                "5": false,
                "_key": "[dndDisableIf]",
                "_value": "item.disable",
                "_type": "kv",
                "_attrDef": "c"
            },
            {
                "6": false,
                "_key": "[dndEffectAllowed]",
                "_value": "item.effectAllowed",
                "_type": "kv",
                "_attrDef": "c"
            },
            {
                "7": false,
                "_key": "(dndStart)",
                "_value": "onDragStart($event)",
                "_type": "kv",
                "_attrDef": "c"
            },
            {
                "8": false,
                "_key": "(dndCopied)",
                "_value": "onDragged(item, draggableListLeft, 'copy')",
                "_type": "kv",
                "_attrDef": "c"
            },
            {
                "9": false,
                "_key": "(dndLinked)",
                "_value": "onDragged(item, draggableListLeft, 'link')",
                "_type": "kv",
                "_attrDef": "c"
            },
            {
                "10": false,
                "_key": "(dndMoved)",
                "_value": "onDragged(item, draggableListLeft, 'move')",
                "_type": "kv",
                "_attrDef": "c"
            },
            {
                "11": false,
                "_key": "(dndCanceled)",
                "_value": "onDragged(item, draggableListLeft, 'none')",
                "_type": "kv",
                "_attrDef": "c"
            },
            {
                "12": false,
                "_key": "(dndEnd)",
                "_value": "onDragEnd($event)",
                "_type": "kv",
                "_attrDef": "c"
            }
        ],
        "type": 1
    },
    "23c2b0c1-a324-8775-4257-0691048fc280": {
        "name": "NG-Header",
        "guid": "23c2b0c1-a324-8775-4257-0691048fc280",
        "template": "<header %style% %class% %bCustomProps%></header>",
        "designerTemplate": "<div class=\"ad-header ad-charts-border  drop bkeeper-container-label\"></div>",
        "paletteTemplate": "Header",
        "templateUrl": "https://www.w3schools.com/tags/tag_header.asp",
        "htmlAttributes": [
            {
                "0": false,
                "_key": "style",
                "_value": "",
                "_type": "kv",
                "_attrDef": "p"
            },
            {
                "1": false,
                "_key": "class",
                "_value": "headerDivM",
                "_type": "kv",
                "_attrDef": "p"
            }
        ],
        "type": 1
    },
    "283246e5-64c4-859a-c1ab-c838248a4c4d": {
        "name": "FlexLayoutRow",
        "guid": "283246e5-64c4-859a-c1ab-c838248a4c4d",
        "template": "<div fxLayout=\"row\" %style% %class% %fxFlex% %fxLayoutWrap% %fxLayoutGap% %fxLayoutAlign% %fxShow% %fxHide% %bCustomProps%></div>",
        "designerTemplate": "<div class=\"row drop bkeeper-container-label\"></div>",
        "paletteTemplate": "Flex Layout Row",
        "templateUrl": "https://github.com/angular/flex-layout/wiki/fxLayout-API",
        "htmlAttributes": [
            {
                "0": false,
                "_key": "style",
                "_value": "width:100%; height:100%",
                "_type": "kv",
                "_attrDef": "p"
            },
            {
                "1": false,
                "_key": "class",
                "_value": "",
                "_type": "kv",
                "_attrDef": "p"
            },
            {
                "2": false,
                "_key": "fxFlex",
                "_value": "row",
                "_type": "kv",
                "_attrDef": "p"
            },
            {
                "_key": "fxLayoutWrap",
                "_value": "",
                "_type": "kv",
                "_attrDef": "p"
            },
            {
                "4": false,
                "_key": "fxLayoutGap",
                "_value": "",
                "_type": "kv",
                "_attrDef": "p"
            },
            {
                "5": false,
                "_key": "fxLayoutAlign",
                "_value": "space-evenly start",
                "_type": "kv",
                "_attrDef": "p"
            },
            {
                "6": false,
                "_key": "fxShow",
                "_value": "true",
                "_type": "kv",
                "_attrDef": "p"
            },
            {
                "_key": "fxHide",
                "_value": "false",
                "_type": "kv",
                "_attrDef": "p"
            },
            {
                "8": false,
                "_key": "(dndDrop)",
                "_value": "onDrop($event, draggableListRight)",
                "_type": "kv",
                "_attrDef": "c"
            },
            {
                "9": false,
                "_key": "dndDropzone",
                "_value": "",
                "_type": "kv",
                "_attrDef": "c"
            },
            {
                "10": false,
                "_key": "dndEffectAllowed",
                "_value": "copyMove",
                "_type": "kv",
                "_attrDef": "c"
            }
        ],
        "type": 1
    },
    "daa77469-e498-4db6-a640-1490f6b9ff14": {
        "name": "NG-sidenav-container",
        "guid": "daa77469-e498-4db6-a640-1490f6b9ff14",
        "template": "<mat-sidenav-container %style% %bCustomProps% %class%></mat-sidenav-container>",
        "designerTemplate": "<div class=\"ad-sidenav-container ad-charts-border drop bkeeper-container-label\"><i style=\"font-size: 20px;position:absolute !important;top:0%;left:100px;\" class=\"material-icons validate icons-events\">content_paste</i></div>",
        "paletteTemplate": "Sidenav Container",
        "templateUrl": "https://material.angular.io/components/sidenav/overview",
        "htmlAttributes": [
            {
                "0": true,
                "_key": "style",
                "_value": "width:100%;height:100%",
                "_type": "kv",
                "_attrDef": "p"
            },
            {
                "1": false,
                "_key": "class",
                "_value": "sideNavDragContainer",
                "_type": "kv",
                "_attrDef": "p"
            }
        ],
        "type": 6
    },
    "c0ca61d8-bc2a-2ba0-4033-6061846bfb22": {
        "name": "NG-sidenav",
        "guid": "c0ca61d8-bc2a-2ba0-4033-6061846bfb22",
        "template": "<mat-sidenav #sidenav %bCustomProps% %style% %class% %fxLayout% %mode% %(open)% %(close)% %(toggle)% %align% %opened%></mat-sidenav>",
        "designerTemplate": "<div class=\"ad-side-nav1 ad-charts-border drop bkeeper-container-label\"><img class=\"icons-events\" style=\"height:15px;width:15px; vertical-align:middle; position:absolute !important;top:0%;left:55px;\" src=\"assets/toolkitResources/sidenav1.ico\"></div>",
        "paletteTemplate": "Sidenav",
        "templateUrl": "https://material.angular.io/components/sidenav/overview",
        "htmlAttributes": [
            {
                "0": true,
                "_key": "style",
                "_value": "height:100%;width:25%",
                "_type": "kv",
                "_attrDef": "p"
            },
            {
                "1": false,
                "_key": "class",
                "_value": "sideNavDraggable",
                "_type": "kv",
                "_attrDef": "p"
            },
            {
                "2": false,
                "_key": "mode",
                "_value": "side",
                "_type": "kv",
                "_attrDef": "p"
            },
            {
                "3": false,
                "_key": "opened",
                "_value": "true",
                "_type": "kv",
                "_attrDef": "p"
            },
            {
                "_key": "align",
                "_value": "",
                "_type": "kv",
                "_attrDef": "p"
            },
            {
                "5": false,
                "_key": "fxLayout",
                "_value": "",
                "_type": "kv",
                "_attrDef": "p"
            },
            {
                "6": false,
                "_key": "(open)",
                "_value": "",
                "_type": "kv",
                "_attrDef": "p"
            },
            {
                "_key": "(close)",
                "_value": "",
                "_type": "kv",
                "_attrDef": "p"
            },
            {
                "_key": "(toggle)",
                "_value": "",
                "_type": "kv",
                "_attrDef": "p"
            },
            {
                "9": false,
                "_key": "#sidenav",
                "_value": "",
                "_type": "a",
                "_attrDef": "c"
            }
        ],
        "type": 6
    },
    "81d8ee7c-c63b-2f83-07e3-f01a820a1e03": {
        "name": "FlexLayoutCol",
        "guid": "81d8ee7c-c63b-2f83-07e3-f01a820a1e03",
        "template": "<div fxLayout=\"column\" %style% %class% %fxFlex% %fxLayoutWrap% %fxLayoutGap% %fxLayoutAlign% %fxShow% %fxHide% %bCustomProps%></div>",
        "designerTemplate": "<div class=\"column drop bkeeper-container-label\"></div>",
        "paletteTemplate": "Flex Layout Column",
        "templateUrl": "https://github.com/angular/flex-layout/wiki/fxLayout-API",
        "htmlAttributes": [
            {
                "_key": "style",
                "_value": "",
                "_type": "kv",
                "_attrDef": "p"
            },
            {
                "1": true,
                "_key": "class",
                "_value": "",
                "_type": "kv",
                "_attrDef": "p"
            },
            {
                "2": false,
                "_key": "fxFlex",
                "_value": "cloumn",
                "_type": "kv",
                "_attrDef": "p"
            },
            {
                "_key": "fxLayoutWrap",
                "_value": "",
                "_type": "kv",
                "_attrDef": "p"
            },
            {
                "_key": "fxLayoutGap",
                "_value": "",
                "_type": "kv",
                "_attrDef": "p"
            },
            {
                "5": true,
                "_key": "fxLayoutAlign",
                "_value": "",
                "_type": "kv",
                "_attrDef": "p"
            },
            {
                "6": false,
                "_key": "fxShow",
                "_value": "true",
                "_type": "kv",
                "_attrDef": "p"
            },
            {
                "_key": "fxHide",
                "_value": "false",
                "_type": "kv",
                "_attrDef": "p"
            }
        ],
        "type": 1
    },
    "8b3dcb8e-340b-ad27-b717-62c816507b6a": {
        "name": "NG-list",
        "guid": "8b3dcb8e-340b-ad27-b717-62c816507b6a",
        "template": "<mat-list %style% %bCustomProps% %class%></mat-list>",
        "designerTemplate": "<div class=\"ad-list-border drop ad-list\"></div>",
        "paletteTemplate": "List",
        "templateUrl": "https://material.angular.io/components/list/overview",
        "htmlAttributes": [
            {
                "0": false,
                "_key": "style",
                "_value": "width:100%;",
                "_type": "kv",
                "_attrDef": "p"
            },
            {
                "1": false,
                "_key": "class",
                "_value": "droppableEle",
                "_type": "kv",
                "_attrDef": "p"
            },
            {
                "2": false,
                "_key": "[sortablejs]",
                "_value": "draggableListRight",
                "_type": "kv",
                "_attrDef": "c"
            }
        ],
        "type": 1
    },
    "aee927a3-6c25-3840-b36a-483200c526dd": {
        "name": "NG-listItem",
        "guid": "aee927a3-6c25-3840-b36a-483200c526dd",
        "template": "<mat-list-item %*ngFor%  %style% %bCustomProps% %class%>%label%</mat-list-item>",
        "designerTemplate": "<div class=\"ad-list-border  drop ad-list ad-list-item\"></div>",
        "paletteTemplate": "List Item",
        "templateUrl": "https://material.angular.io/components/list/overview",
        "htmlAttributes": [
            {
                "0": false,
                "_key": "style",
                "_value": "",
                "_type": "kv",
                "_attrDef": "p"
            },
            {
                "1": false,
                "_key": "class",
                "_value": "",
                "_type": "kv",
                "_attrDef": "p"
            },
            {
                "2": false,
                "_key": "*ngFor",
                "_value": "let item of draggableListRight; let i = index",
                "_type": "kv",
                "_attrDef": "p"
            },
            {
                "3": false,
                "_key": "label",
                "_value": "<b>{{item.content}}</b>",
                "_type": "a",
                "_attrDef": "p"
            },
            {
                "4": false,
                "5": false,
                "_key": "[dndEffectAllowed]",
                "_value": "item.effectAllowed",
                "_type": "kv",
                "_attrDef": "c"
            },
            {
                "5": false,
                "6": false,
                "_key": "[dndDisableIf]",
                "_value": "item.disable",
                "_type": "kv",
                "_attrDef": "c"
            },
            {
                "6": false,
                "8": false,
                "10": false,
                "13": false,
                "_key": "dndDropzone",
                "_value": "",
                "_type": "kv",
                "_attrDef": "c"
            },
            {
                "7": false,
                "9": false,
                "13": false,
                "14": false,
                "_key": "(dndDrop)",
                "_value": "onDrop($event, item.children, item)",
                "_type": "kv",
                "_attrDef": "c"
            },
            {
                "8": false,
                "10": false,
                "14": false,
                "_key": "[ngClass]",
                "_value": "{'activeChildren': item.children.length > 0 }",
                "_type": "kv",
                "_attrDef": "c"
            },
            {
                "9": false,
                "10": false,
                "_key": "[attr.data-index]",
                "_value": "i",
                "_type": "kv",
                "_attrDef": "c"
            },
            {
                "10": false,
                "_key": "draggable",
                "_value": "true",
                "_type": "kv",
                "_attrDef": "c"
            }
        ],
        "type": 1
    },
    "8746dd38-419a-ff7b-a4a5-921ff67f6c58": {
        "name": "NG-list",
        "guid": "8746dd38-419a-ff7b-a4a5-921ff67f6c58",
        "template": "<mat-list %style% %bCustomProps% %class%></mat-list>",
        "designerTemplate": "<div class=\"ad-list-border drop ad-list\"></div>",
        "paletteTemplate": "List",
        "templateUrl": "https://material.angular.io/components/list/overview",
        "htmlAttributes": [
            {
                "0": false,
                "_key": "style",
                "_value": "",
                "_type": "kv",
                "_attrDef": "p"
            },
            {
                "1": false,
                "_key": "class",
                "_value": "innerDroppable",
                "_type": "kv",
                "_attrDef": "p"
            },
            {
                "_key": "[sortablejs]",
                "_value": "item.children",
                "_type": "kv",
                "_attrDef": "c"
            }
        ],
        "type": 1
    },
    "efebb799-4f64-7671-b8d1-d32e73d7d005": {
        "name": "NG-listItem",
        "guid": "efebb799-4f64-7671-b8d1-d32e73d7d005",
        "template": "<mat-list-item %*ngFor%  %style% %bCustomProps% %class%>%label%</mat-list-item>",
        "designerTemplate": "<div class=\"ad-list-border  drop ad-list ad-list-item\"></div>",
        "paletteTemplate": "List Item",
        "templateUrl": "https://material.angular.io/components/list/overview",
        "htmlAttributes": [
            {
                "_key": "style",
                "_value": "",
                "_type": "kv",
                "_attrDef": "p"
            },
            {
                "1": false,
                "_key": "class",
                "_value": "",
                "_type": "kv",
                "_attrDef": "p"
            },
            {
                "2": false,
                "_key": "*ngFor",
                "_value": "let cItem of item.children",
                "_type": "kv",
                "_attrDef": "p"
            },
            {
                "3": false,
                "_key": "label",
                "_value": "{{cItem.content}}",
                "_type": "a",
                "_attrDef": "p"
            }
        ],
        "type": 1
    },
    "030ef8d9-8165-563d-085f-35fa6ef5c9a1": {
        "name": "NG-MiniFabButton",
        "guid": "030ef8d9-8165-563d-085f-35fa6ef5c9a1",
        "template": "<button mat-mini-fab %style% %class% %bCustomProps% %color% %(click)%>%fabicon%</button>",
        "designerTemplate": "<div class=\"ad-mini-fab-button ad-fab\"></div>",
        "paletteTemplate": "Mini Fab Button",
        "templateUrl": "https://material.angular.io/components/button/overview",
        "htmlAttributes": [
            {
                "0": false,
                "_key": "style",
                "_value": "",
                "_type": "kv",
                "_attrDef": "p"
            },
            {
                "1": false,
                "_key": "class",
                "_value": "listDeleteIcon",
                "_type": "kv",
                "_attrDef": "p"
            },
            {
                "2": false,
                "_key": "fabicon",
                "_value": "<i class=\"material-icons\"> delete_forever </i>",
                "_type": "a",
                "_attrDef": "p"
            },
            {
                "3": false,
                "_key": "color",
                "_value": "warn",
                "_type": "kv",
                "_attrDef": "p"
            },
            {
                "4": false,
                "_key": "(click)",
                "_value": "removeItem($event, draggableListRight, item)",
                "_type": "kv",
                "_attrDef": "p"
            }
        ],
        "type": 5
    },
    "351a999a-bffb-9331-014e-935ad911ad52": {
        "name": "NG-MiniFabButton",
        "guid": "351a999a-bffb-9331-014e-935ad911ad52",
        "template": "<button mat-mini-fab %style% %class% %bCustomProps% %color% %(click)%>%fabicon%</button>",
        "designerTemplate": "<div class=\"ad-mini-fab-button ad-fab\"></div>",
        "paletteTemplate": "Mini Fab Button",
        "templateUrl": "https://material.angular.io/components/button/overview",
        "htmlAttributes": [
            {
                "0": false,
                "_key": "style",
                "_value": "",
                "_type": "kv",
                "_attrDef": "p"
            },
            {
                "1": false,
                "_key": "class",
                "_value": "listDeleteIcon",
                "_type": "kv",
                "_attrDef": "p"
            },
            {
                "2": false,
                "_key": "fabicon",
                "_value": "<i class=\"material-icons\"> delete_forever </i>",
                "_type": "a",
                "_attrDef": "p"
            },
            {
                "3": false,
                "_key": "color",
                "_value": "warn",
                "_type": "kv",
                "_attrDef": "p"
            },
            {
                "4": false,
                "_key": "(click)",
                "_value": "removeItem($event, item.children, cItem)",
                "_type": "kv",
                "_attrDef": "p"
            }
        ],
        "type": 5
    },
    "baccdd13-00e6-d6b8-91be-71cfc00fcaa4": {
        "name": "NG-MiniFabButton",
        "guid": "baccdd13-00e6-d6b8-91be-71cfc00fcaa4",
        "template": "<button mat-mini-fab %style% %class% %bCustomProps% %color% %(click)%>%fabicon%</button>",
        "designerTemplate": "<div class=\"ad-mini-fab-button ad-fab\"></div>",
        "paletteTemplate": "Mini Fab Button",
        "templateUrl": "https://material.angular.io/components/button/overview",
        "htmlAttributes": [
            {
                "0": false,
                "_key": "style",
                "_value": "",
                "_type": "kv",
                "_attrDef": "p"
            },
            {
                "1": false,
                "_key": "class",
                "_value": "",
                "_type": "kv",
                "_attrDef": "p"
            },
            {
                "2": false,
                "_key": "fabicon",
                "_value": "<i class=\"material-icons\"> menu </i>",
                "_type": "a",
                "_attrDef": "p"
            },
            {
                "3": false,
                "_key": "color",
                "_value": "primary",
                "_type": "kv",
                "_attrDef": "p"
            },
            {
                "4": false,
                "_key": "(click)",
                "_value": "sidenav.toggle()",
                "_type": "kv",
                "_attrDef": "p"
            }
        ],
        "type": 5
    },
    "5d5edeb4-4392-3581-ca49-070b6ba5c1c0": {
        "name": "NG-listItem",
        "guid": "5d5edeb4-4392-3581-ca49-070b6ba5c1c0",
        "template": "<mat-list-item %*ngFor%  %style% %bCustomProps% %class%>%label%</mat-list-item>",
        "designerTemplate": "<div class=\"ad-list-border  drop ad-list ad-list-item\"></div>",
        "paletteTemplate": "List Item",
        "templateUrl": "https://material.angular.io/components/list/overview",
        "htmlAttributes": [
            {
                "0": false,
                "_key": "style",
                "_value": "height: 0px;",
                "_type": "kv",
                "_attrDef": "p"
            },
            {
                "1": false,
                "_key": "class",
                "_value": "dndPlaceholder",
                "_type": "kv",
                "_attrDef": "p"
            },
            {
                "2": false,
                "_key": "*ngFor",
                "_value": "",
                "_type": "kv",
                "_attrDef": "p"
            },
            {
                "_key": "label",
                "_value": "",
                "_type": "a",
                "_attrDef": "p"
            },
            {
                "4": false,
                "_key": "dndPlaceholderRef",
                "_value": "",
                "_type": "a",
                "_attrDef": "c"
            }
        ],
        "type": 1
    },
    "2b3e00f6-8e73-1ad2-7601-4d54044b39f1": {
        "name": "NG-listItem",
        "guid": "2b3e00f6-8e73-1ad2-7601-4d54044b39f1",
        "template": "<mat-list-item %*ngFor%  %style% %bCustomProps% %class%>%label%</mat-list-item>",
        "designerTemplate": "<div class=\"ad-list-border  drop ad-list ad-list-item\"></div>",
        "paletteTemplate": "List Item",
        "templateUrl": "https://material.angular.io/components/list/overview",
        "htmlAttributes": [
            {
                "0": false,
                "_key": "style",
                "_value": "",
                "_type": "kv",
                "_attrDef": "p"
            },
            {
                "1": false,
                "_key": "class",
                "_value": "dndPlaceholder",
                "_type": "kv",
                "_attrDef": "p"
            },
            {
                "_key": "*ngFor",
                "_value": "",
                "_type": "kv",
                "_attrDef": "p"
            },
            {
                "_key": "label",
                "_value": "",
                "_type": "a",
                "_attrDef": "p"
            },
            {
                "4": false,
                "_key": "dndPlaceholderRef",
                "_value": "",
                "_type": "a",
                "_attrDef": "c"
            }
        ],
        "type": 1
    },
    "953c5899-da1e-9bd8-8ac4-044795d232b4": {
        "name": "NG-list",
        "guid": "953c5899-da1e-9bd8-8ac4-044795d232b4",
        "template": "<mat-list %style% %bCustomProps% %class%></mat-list>",
        "designerTemplate": "<div class=\"ad-list-border drop ad-list\"></div>",
        "paletteTemplate": "List",
        "templateUrl": "https://material.angular.io/components/list/overview",
        "htmlAttributes": [
            {
                "_key": "style",
                "_value": "",
                "_type": "kv",
                "_attrDef": "p"
            },
            {
                "_key": "class",
                "_value": "",
                "_type": "kv",
                "_attrDef": "p"
            }
        ],
        "type": 1
    },
    "f563f9ab-bc7a-56bd-3d97-61372cb6bc9f": {
        "name": "NG-list",
        "guid": "f563f9ab-bc7a-56bd-3d97-61372cb6bc9f",
        "template": "<mat-list %style% %bCustomProps% %class%></mat-list>",
        "designerTemplate": "<div class=\"ad-list-border drop ad-list\"></div>",
        "paletteTemplate": "List",
        "templateUrl": "https://material.angular.io/components/list/overview",
        "htmlAttributes": [
            {
                "_key": "style",
                "_value": "",
                "_type": "kv",
                "_attrDef": "p"
            },
            {
                "_key": "class",
                "_value": "",
                "_type": "kv",
                "_attrDef": "p"
            }
        ],
        "type": 1
    }
}
